{
  "name": "query+linterrors",
  "mode": "list",
  "fieldname": "linterrors",
  "fields": [
    {
      "name": "pageid",
      "type_": "u64",
      "prop": "=default"
    },
    {
      "name": "ns",
      "type_": "u32",
      "prop": "=default"
    },
    {
      "name": "title",
      "type_": "String",
      "prop": "=default"
    },
    {
      "name": "lintId",
      "type_": "u64",
      "prop": "=default"
    },
    {
      "name": "location",
      "type_": "Vec<u32>",
      "prop": "=default"
    },
    {
      "name": "templateInfo",
      "type_": "mwapi_responses::lint::TemplateInfo",
      "prop": "=default"
    },
    {
      "name": "params",
      "type_": "mwapi_responses::lint::TemplateParam",
      "prop": "=default"
    }
  ]
}